{
  "type": "service_account",
  "project_id": "countrics",
  "private_key_id": "d9d0687c9be52433a1750168251844cd7a7ccc15",
  "private_key": "-----BEGIN PRIVATE KEY-----\nMIIEvQIBADANBgkqhkiG9w0BAQEFAASCBKcwggSjAgEAAoIBAQCym36N1TI8Mdsw\nW/8jEjWEmdwqVxNR5/wkXN85b6fM4w9JuL8Icn/mvdNFP2eTJzabvbHi2TTRlDuK\necu5caSHpB1qbnXr488r8FqJQXxaoMAJbbny/FqolRJwFUDx4HmVbrBILpfgKlub\ndrYnmkznyx1Ab+BASRKOgR6eO+n5hG0bVvdW4O3zunD0gPS8TPUG7jZ61qvI31Ma\nHbNK0EyU9YRBckWo9fnWoXCVRjsgqsJpTVvey3CORIiwIPjBnl2lCE/AIQpn58n4\n/kcvGdDIcgjstHZyrIiyqFa6fcun5m+HLwFWPRcX4T/P3ZyAxZWnxq8AJdNYb6N6\nVZvXYhjRAgMBAAECggEAA4oa0i87KV+4jwcHsZd7CYduCkXC+4DMKaFQiCgbDG+k\nfirD2GRCfh1dajYlNJCWn7P86jixOAUGwAoFXEWxA8IgFhudySCw2pdPCADM+NPO\nMnGi+XqARm572M5HBPQUnL4+jpOjzVyxh41s8zB23TIUgJInAMch78KFy4925cuu\nRWW+UC66lLVsH/kcBL8Mtl1sgeVGpxzOnM2KYiEcwyxVUN2qnNKsk8uBQbXJ4vmj\nfKRoFp2LasecFwyVKZ2yplJ/F82aVr8tmAhgwWhA0ZsRQ24gGRqXVjn/lvzDoNEI\nuQfC8Ge3JiuKW1v28AnCiW8rwpKPiot2BWksb+JPAQKBgQDrKicWDBjvB2l7f2IM\nGxKAjpCpPa5to03v5Cff66OmyimFkE1OvGc9PH+gW34C4jWf3utOFNTHVFTzeK3J\nVU5fHxiRul7MKPzET1Nn8HBF6MrWKnZHOjCr3KUMvcp1HQLHXO3LE5z7/0u7gwbF\n3hwauisy1Kreksulpg4l3iA3kQKBgQDCbow8LPWsitfqSr6e8CiTPJBukv4/jGtZ\nh9STU3JyY1fZM4mxfkQM+xhkHch/DdCm5UXe3y0bY56xnmhAx3SONt2TSd8w0o1T\nlElLNM4P89SPWlZTPz82gkXAjZtqViEykx8qskJePEX5/wPR9BRywkzZHBdw7qO7\nbXJQQ7etQQKBgDpxNFt/UCb/IZDGfHhjtfpq87qLkLDAl9rZSauVZQtLTHxb+0po\n+gM26MTSWAOhchA0FyhFdwe+hoonYJEbeSmckb+NoId+XCrxR9oZ390P2HDXBqP2\n6yea4w3CkPD/77PZ/WKtkiLyNED6dBFyfGuL/rZYMcq0kpWtKfDxPfJxAoGAEYiS\nkOKlDPhAXFp9MiwKHKz7gV00HFr3W02Kd/awfWxEAcxKAH2YeWszWePtrrd6N3K5\niE2r7apgJzhXwm+6LRD5jky9GdQC9qSKr4OFiZ69bmgBHOS5OJsq2yBqAX7e44as\n6tbEcWcSEGdU2twd8/Ndpr6HxqFelopaIq7Yo4ECgYEA2hKHNNJv4tTbGGfPStIx\n9lRqSfJKIr2zoCf6b1rFRKSMo4+Cmc6Suthcp8ngP9J2YyQKPVMCObEkll3pEQlh\nJjQ3OqKzshw0lkH94mwXWKZymXYXF+wIzBjHiPt237nOF3Y5zrJ041BmasmNFJYn\nV2J92hXNNO9e0mk959+w0sU=\n-----END PRIVATE KEY-----\n",
  "client_email": "crawler@countrics.iam.gserviceaccount.com",
  "client_id": "100835034499855842969",
  "auth_uri": "https://accounts.google.com/o/oauth2/auth",
  "token_uri": "https://oauth2.googleapis.com/token",
  "auth_provider_x509_cert_url": "https://www.googleapis.com/oauth2/v1/certs",
  "client_x509_cert_url": "https://www.googleapis.com/robot/v1/metadata/x509/crawler%40countrics.iam.gserviceaccount.com"
}
